{
  "widgets": [{
    "sampleWidgetAssets": {
      "caption" : "Customer",
      "channel" : "another channel",
      "channelDesc" : "CustomerDetails",
      "content" : "<h1>Lindsay Lohan</h1>",
      "filename" : "main.tpl.html",
      "folder" : "templates",
      "isComponent" : false,
      "key" : "8397800a-782e-410b-ad91...es_main-tpl-html_design",
      "tooltip" : "sample form",
      "widgetData" : {
        "classType" : "widget",
        "contextType" : "folder",
        "formId" : 1,
        "widgetId" : 1
      }
    }
  }]
}
